Fitting and interpreting models - Naveen - Fundamentals of Analytics
…
0

0

0

0

1

]
.pull-right-narrow[
.small[

## # A tibble: 3,393 x 3
##    name      Height_in school_pntg
##    <chr>         <dbl> <chr>      
##  1 L1764-2          37 F          
##  2 L1764-3          18 I          
##  3 L1764-4          13 D/FL       
##  4 L1764-5a         14 F          
##  5 L1764-5b         14 F          
##  6 L1764-6           7 I          
##  7 L1764-7a          6 F          
##  8 L1764-7b          6 F          
##  9 L1764-8          15 I          
## 10 L1764-9a          9 D/FL       
## 11 L1764-9b          9 D/FL       
## 12 L1764-10a        16 X          
## 13 L1764-10b        16 X          
## 14 L1764-10c        16 X          
## 15 L1764-11         20 D/FL       
## 16 L1764-12a        14 D/FL       
## 17 L1764-12b        14 D/FL       
## 18 L1764-13a        15 D/FL       
## 19 L1764-13b        15 D/FL       
## 20 L1764-14         37 F          
## # ... with 3,373 more rows
…
