A02: TIDYVERSE - Naveen - Fundamentals of Analytics
…
names(btcdata)

## [1] "Date"      "Open"      "High"      "Low"       "Close"     "Adj Close"
## [7] "Volume"

One table verb - Count

btcdata %>%
  count(Date)

## # A tibble: 619 x 2
##    Date          n
##    <chr>     <int>
##  1 1/1/2020      1
##  2 1/1/2021      1
##  3 1/10/2020     1
##  4 1/10/2021     1
##  5 1/11/2020     1
##  6 1/11/2021     1
##  7 1/12/2020     1
##  8 1/12/2021     1
##  9 1/13/2020     1
## 10 1/13/2021     1
## # ... with 609 more rows

One table verb - Distinct

btcdata %>%
  distinct(Date)

## # A tibble: 619 x 1
##    Date     
##    <chr>    
##  1 9/18/2019
##  2 9/19/2019
##  3 9/20/2019
##  4 9/21/2019
##  5 9/22/2019
##  6 9/23/2019
##  7 9/24/2019
##  8 9/25/2019
##  9 9/26/2019
## 10 9/27/2019
## # ... with 609 more rows
…
Grouping - Group By

btcdata %>%
  group_by(Date)

## # A tibble: 619 x 7
## # Groups:   Date [619]
##    Date      Open        High       Low        Close      `Adj Close` Volume    
##    <chr>     <chr>       <chr>      <chr>      <chr>      <chr>       <chr>     
##  1 9/18/2019 734975.875  731490.68~ 725478.5   725961     725961      1.15101E+~
##  2 9/19/2019 726121      735039.75  703342.81~ 732951.18~ 732951.1875 1.42341E+~
##  3 9/20/2019 732944.3125 732415.81~ 721472.43~ 724993.93~ 724993.9375 1.04916E+~
##  4 9/21/2019 725136.875  725453.68~ 712110.43~ 713463.93~ 713463.9375 9.5596E+11
##  5 9/22/2019 713777.125  717307.06~ 706490.93~ 717018.56~ 717018.5625 9.39824E+~
##  6 9/23/2019 716845.5625 713261     688686.5   688840.875 688840.875  1.07227E+~
##  7 9/24/2019 688840.6875 695793.75  594059.875 611785.25  611785.25   1.77441E+~
##  8 9/25/2019 610569      620775.875 591001.31~ 602472.68~ 602472.6875 1.54361E+~
##  9 9/26/2019 602520.75   604371.375 560365.06~ 576215.68~ 576215.6875 1.36678E+~
## 10 9/27/2019 575799.3125 584457.375 562864.125 583067.125 583067.125  1.15944E+~
## # ... with 609 more rows

Grouping - Group By Colls

gdf <- btcdata %>% group_by(Date)
gdf %>% select(group_cols())

## # A tibble: 619 x 1
## # Groups:   Date [619]
##    Date     
##    <chr>    
##  1 9/18/2019
##  2 9/19/2019
##  3 9/20/2019
##  4 9/21/2019
##  5 9/22/2019
##  6 9/23/2019
##  7 9/24/2019
##  8 9/25/2019
##  9 9/26/2019
## 10 9/27/2019
## # ... with 609 more rows

Vector functions - Between

filter(btcdata, between(High, 2000, 1000000000))

## Warning in between(High, 2000, 1e+09): NAs introduced by coercion

## # A tibble: 615 x 7
##    Date      Open        High       Low        Close      `Adj Close` Volume    
##    <chr>     <chr>       <chr>      <chr>      <chr>      <chr>       <chr>     
##  1 9/18/2019 734975.875  731490.68~ 725478.5   725961     725961      1.15101E+~
##  2 9/19/2019 726121      735039.75  703342.81~ 732951.18~ 732951.1875 1.42341E+~
##  3 9/20/2019 732944.3125 732415.81~ 721472.43~ 724993.93~ 724993.9375 1.04916E+~
##  4 9/21/2019 725136.875  725453.68~ 712110.43~ 713463.93~ 713463.9375 9.5596E+11
##  5 9/22/2019 713777.125  717307.06~ 706490.93~ 717018.56~ 717018.5625 9.39824E+~
##  6 9/23/2019 716845.5625 713261     688686.5   688840.875 688840.875  1.07227E+~
##  7 9/24/2019 688840.6875 695793.75  594059.875 611785.25  611785.25   1.77441E+~
##  8 9/25/2019 610569      620775.875 591001.31~ 602472.68~ 602472.6875 1.54361E+~
##  9 9/26/2019 602520.75   604371.375 560365.06~ 576215.68~ 576215.6875 1.36678E+~
## 10 9/27/2019 575799.3125 584457.375 562864.125 583067.125 583067.125  1.15944E+~
## # ... with 605 more rows

Vector functions - Descending

btcdata %>%
 arrange(desc(Date))

## # A tibble: 619 x 7
##    Date      Open        High       Low        Close      `Adj Close` Volume    
##    <chr>     <chr>       <chr>      <chr>      <chr>      <chr>       <chr>     
##  1 9/9/2020  747769.125  759233     738947.56~ 751046.25  751046.25   1.76927E+~
##  2 9/8/2020  761576.3125 768096.375 734651.81~ 747574.68~ 747574.6875 2.46677E+~
##  3 9/7/2020  753499.9375 764267.625 728510.75  761595.18~ 761595.1875 2.47533E+~
##  4 9/6/2020  744710      758517     736628.68~ 753452.625 753452.625  2.71699E+~
##  5 9/5/2020  770002.875  775059.875 728556.18~ 744882.125 744882.125  3.28997E+~
##  6 9/4/2020  751434.625  780135.06~ 748254.31~ 769950.43~ 769950.4375 2.19483E+~
##  7 9/30/2020 799594.25   800413.81~ 788336.56~ 793269.06~ 793269.0625 1.52656E+~
##  8 9/30/2019 571411.375  587364.75  553209.5   585926.18~ 585926.1875 1.20913E+~
##  9 9/3/2020  835608.125  838189.375 747916.31~ 752531.375 752531.375  2.3451E+12
## 10 9/29/2020 790205.375  800548.18~ 786830.43~ 799846.31~ 799846.3125 1.50843E+~
## # ... with 609 more rows
…
Pivoting – Gather

library(dplyr)

stocks <- tibble(
  time = as.Date('2009-01-01') + 0:9,
  X = rnorm(10, 0, 1),
  Y = rnorm(10, 0, 2),
  Z = rnorm(10, 0, 4)
)

gather(stocks, "stock", "price", -time)

## # A tibble: 30 x 3
##    time       stock  price
##    <date>     <chr>  <dbl>
##  1 2009-01-01 X      0.190
##  2 2009-01-02 X     -0.495
##  3 2009-01-03 X      0.505
##  4 2009-01-04 X     -0.939
##  5 2009-01-05 X     -1.00 
##  6 2009-01-06 X      1.00 
##  7 2009-01-07 X     -0.248
##  8 2009-01-08 X     -1.70 
##  9 2009-01-09 X      1.96 
## 10 2009-01-10 X      0.584
## # ... with 20 more rows

Missing Values - Fill

btcdata %>% fill(Date)

## # A tibble: 619 x 7
##    Date      Open        High       Low        Close      `Adj Close` Volume    
##    <chr>     <chr>       <chr>      <chr>      <chr>      <chr>       <chr>     
##  1 9/18/2019 734975.875  731490.68~ 725478.5   725961     725961      1.15101E+~
##  2 9/19/2019 726121      735039.75  703342.81~ 732951.18~ 732951.1875 1.42341E+~
##  3 9/20/2019 732944.3125 732415.81~ 721472.43~ 724993.93~ 724993.9375 1.04916E+~
##  4 9/21/2019 725136.875  725453.68~ 712110.43~ 713463.93~ 713463.9375 9.5596E+11
##  5 9/22/2019 713777.125  717307.06~ 706490.93~ 717018.56~ 717018.5625 9.39824E+~
##  6 9/23/2019 716845.5625 713261     688686.5   688840.875 688840.875  1.07227E+~
##  7 9/24/2019 688840.6875 695793.75  594059.875 611785.25  611785.25   1.77441E+~
##  8 9/25/2019 610569      620775.875 591001.31~ 602472.68~ 602472.6875 1.54361E+~
##  9 9/26/2019 602520.75   604371.375 560365.06~ 576215.68~ 576215.6875 1.36678E+~
## 10 9/27/2019 575799.3125 584457.375 562864.125 583067.125 583067.125  1.15944E+~
## # ... with 609 more rows

Missing Values - Expand

btcdata %>% expand(High)

## # A tibble: 616 x 1
##    High       
##    <chr>      
##  1 1012870.438
##  2 1015658.938
##  3 1016995.625
##  4 1019734.375
##  5 1031586.063
##  6 1034299.813
##  7 1044144.625
##  8 1046699.188
##  9 1056543.875
## 10 1145966.25 
## # ... with 606 more rows
…
